…
[[2]]
[1] 0.2806366 1.3423211
```

## Part 3: Transform data with dplyr and finding insight the data
### 1. จงหาว่ามีหนังสือเล่มใดบ้างที่มีมีเรตติ้งสูงกว่าค่าเฉลี่ย โดยเรียงลำดับชื่อตามตัวอักษร 
ใช้คำสั่ง `filter(Rating > mean(Rating))` เพื่อหาค่าเรตติ้งหนังสือที่สูงกว่าค่าเฉลี่ย จากนั้นใช้คำสั่ง `select(Book_title)` เพื่อเลือกแสดงผลเฉพาะชื่อหนังสือ ตามด้วยคำสั่ง `arrange(Book_title)` เพื่อเรียงลำดับชื่อจากอักษรต้นไปอักษรท้าย โดยทั้งหมดใช้ pipelines ในการส่งต่อกระบวนการ
```
prog_book %>% filter(Rating > mean(Rating)) %>% select(Book_title) %>% arrange(Book_title)
```
Result:
```
# A tibble: 147 x 1
   Book_title                                                                                           
   <chr>                                                                                                
 1 3D Math Primer for Graphics and Game Development                                                     
 2 A First Course in Logic: An Introduction to Model Theory, Proof Theory, Computability, and Complexity
 3 A Tour of C++                                                                                        
 4 Accelerate: Building and Scaling High-Performing Technology Organizations                            
 5 Accelerated C++: Practical Programming by Example                                                    
 6 Advanced Programming in the UNIX Environment                                                         
 7 Adventures in Minecraft                                                                              
 8 Agile Software Development, Principles, Patterns, and Practices                                      
 9 Algorithm Design                                                                                     
10 Algorithms                                                                                           
# ... with 137 more rows
```
…
